module github.com/arpachain/apollo

go 1.12

require (
	github.com/allegro/bigcache v1.2.1 // indirect
	github.com/apilayer/freegeoip v3.5.0+incompatible // indirect
	github.com/aristanetworks/goarista v0.0.0-20190712234253-ed1100a1c015 // indirect
	github.com/btcsuite/btcd v0.0.0-20190807005414-4063feeff79a // indirect
	github.com/cespare/cp v1.1.1 // indirect
	github.com/deckarep/golang-set v1.7.1 // indirect
	github.com/docker/docker v1.13.1 // indirect
	github.com/edsrzf/mmap-go v1.0.0 // indirect
	github.com/elastic/gosigar v0.10.4 // indirect
	github.com/ethereum/go-ethereum v1.9.0
	github.com/fjl/memsize v0.0.0-20190710130421-bcb5799ab5e5 // indirect
	github.com/gballet/go-libpcsclite v0.0.0-20190607065134-2772fd86a8ff // indirect
	github.com/globalsign/mgo v0.0.0-20181015135952-eeefdecb41b8
	github.com/golang/mock v1.3.1 // indirect
	github.com/graph-gophers/graphql-go v0.0.0-20190724201507-010347b5f9e6 // indirect
	github.com/hashicorp/golang-lru v0.5.3 // indirect
	github.com/howeyc/fsnotify v0.9.0 // indirect
	github.com/huin/goupnp v1.0.0 // indirect
	github.com/influxdata/influxdb v1.7.7 // indirect
	github.com/jackpal/go-nat-pmp v1.0.1 // indirect
	github.com/karalabe/usb v0.0.0-20190703133951-9be757f914c0 // indirect
	github.com/kr/pretty v0.1.0 // indirect
	github.com/labstack/echo/v4 v4.1.6
	github.com/labstack/gommon v0.2.9
	github.com/mattn/go-runewidth v0.0.4 // indirect
	github.com/mohae/deepcopy v0.0.0-20170929034955-c48cc78d4826 // indirect
	github.com/neo4j-drivers/gobolt v1.7.4 // indirect
	github.com/neo4j/neo4j-go-driver v1.7.4
	github.com/olekukonko/tablewriter v0.0.1 // indirect
	github.com/oschwald/maxminddb-golang v1.3.1 // indirect
	github.com/pborman/uuid v1.2.0 // indirect
	github.com/prometheus/tsdb v0.10.0 // indirect
	github.com/rjeczalik/notify v0.9.2 // indirect
	github.com/rs/cors v1.6.0 // indirect
	github.com/status-im/keycard-go v0.0.0-20190424133014-d95853db0f48 // indirect
	github.com/steakknife/bloomfilter v0.0.0-20180922174646-6819c0d2a570 // indirect
	github.com/steakknife/hamming v0.0.0-20180906055917-c99c65617cd3 // indirect
	github.com/stretchr/testify v1.4.0
	github.com/syndtr/goleveldb v1.0.0 // indirect
	github.com/tyler-smith/go-bip39 v1.0.0 // indirect
	github.com/wsddn/go-ecdh v0.0.0-20161211032359-48726bab9208 // indirect
	golang.org/x/crypto v0.0.0-20191011191535-87dc89f01550
	golang.org/x/net v0.0.0-20200226121028-0de0cce0169b // indirect
	golang.org/x/sync v0.0.0-20190911185100-cd5d95a43a6e // indirect
	gopkg.in/check.v1 v1.0.0-20180628173108-788fd7840127 // indirect
	gopkg.in/natefinch/npipe.v2 v2.0.0-20160621034901-c1b8fa8bdcce // indirect
	gopkg.in/olebedev/go-duktape.v3 v3.0.0-20190709231704-1e4459ed25ff // indirect
	gopkg.in/urfave/cli.v1 v1.20.0 // indirect
)
